Generative Art Assignment
…
#packages for spatial noise tricks

library(purrr)
library(ambient)

#mosaic art packages
library(ambient)
library(tidyr)

#load in data
mpg 

# A tibble: 234 × 11
   manufacturer model      displ  year   cyl trans drv     cty   hwy fl    class
   <chr>        <chr>      <dbl> <int> <int> <chr> <chr> <int> <int> <chr> <chr>
 1 audi         a4           1.8  1999     4 auto… f        18    29 p     comp…
 2 audi         a4           1.8  1999     4 manu… f        21    29 p     comp…
 3 audi         a4           2    2008     4 manu… f        20    31 p     comp…
 4 audi         a4           2    2008     4 auto… f        21    30 p     comp…
 5 audi         a4           2.8  1999     6 auto… f        16    26 p     comp…
 6 audi         a4           2.8  1999     6 manu… f        18    26 p     comp…
 7 audi         a4           3.1  2008     6 auto… f        18    27 p     comp…
 8 audi         a4 quattro   1.8  1999     4 manu… 4        18    26 p     comp…
 9 audi         a4 quattro   1.8  1999     4 auto… 4        16    25 p     comp…
10 audi         a4 quattro   2    2008     4 manu… 4        20    28 p     comp…
# ℹ 224 more rows
…
art of choice: spatial noise

x_coords <- seq(from = 0, to = 1, length.out = 1000)
y_coords <- seq(from = 0, to = 1, length.out = 1000)

canvas <- long_grid(x = x_coords, y = y_coords) 
canvas

# A tibble: 1,000,000 × 2
       x       y
   <dbl>   <dbl>
 1     0 0      
 2     0 0.00100
 3     0 0.00200
 4     0 0.00300
 5     0 0.00400
 6     0 0.00501
 7     0 0.00601
 8     0 0.00701
 9     0 0.00801
10     0 0.00901
# ℹ 999,990 more rows

gen_worley(x = 1:5, y = 1, frequency = .001, seed = 2)

[1] 0.000225354 0.000225354 0.000225354 0.000225354 0.000225354

gen_worley(x = 1:5, y = 1, frequency = .5, seed = 2)

[1]    119098.2    119098.2    119098.2 792415648.0 792415648.0

canvas <- canvas |> 
  mutate(paint = gen_worley(x, y, frequency = 10, seed = 1234)) #seed changes spatial pattern
canvas

# A tibble: 1,000,000 × 3
       x       y  paint
   <dbl>   <dbl>  <dbl>
 1     0 0       52932.
 2     0 0.00100 52932.
 3     0 0.00200 52932.
 4     0 0.00300 52932.
 5     0 0.00400 52932.
 6     0 0.00501 52932.
 7     0 0.00601 52932.
 8     0 0.00701 52932.
 9     0 0.00801 52932.
10     0 0.00901 52932.
# ℹ 999,990 more rows
…
# Creates 400 numbers between 0 and 1 for the y-coordinates
y_coords <- seq(from = 0, to = 1, length.out = 400)  

# Create a grid with coordinates
canvas <- long_grid(x = x_coords, y = y_coords)  

# Apply perlin noise function 
canvas <- canvas %>%  
  mutate(paint = gen_perlin(x, y, frequency = 10, seed = 1234))

# Display the resulting canvas with the "perlin" nose applied
canvas

# A tibble: 160,000 × 3
       x       y  paint
   <dbl>   <dbl>  <dbl>
 1     0 0       0     
 2     0 0.00251 0.0249
 3     0 0.00501 0.0490
 4     0 0.00752 0.0714
 5     0 0.0100  0.0916
 6     0 0.0125  0.109 
 7     0 0.0150  0.124 
 8     0 0.0175  0.135 
 9     0 0.0201  0.142 
10     0 0.0226  0.146 
# ℹ 159,990 more rows
…
